###################################
#	   Aarhus Bryghus	  #
#	     KVITTERING	 	  #
#     Dato 03-04-2019 | 11:33     #
###################################
[Rundvisningstur x 25]
Betalings metode : INVOICE
Pris : 2500.0
Registreret den : 2019-04-03
Tidspunkt: 03-04-2019 - 11:33

[Klosterbryg 20 liter x 3]
Betalings metode : INVOICE
Pris : 2325.0
Registreret den : 2019-04-03
Afsluttet : 2020-04-12

###################################
#	   Aarhus Bryghus	  #
#	     KVITTERING	 	  #
#     Dato 03-04-2019 | 11:39     #
###################################
[Rundvisningstur x 25]
Betalings metode : CREDITCARD
Pris : 2500.0
Registreret den : 2019-04-03
Tidspunkt: 03-04-2019 - 11:39

[Klosterbryg 20 liter x 3]
Betalings metode : CREDITCARD
Pris : 2325.0
Registreret den : 2019-04-03
Afsluttet : 2020-04-12

###################################
#	   Aarhus Bryghus	  #
#	     KVITTERING	 	  #
#     Dato 03-04-2019 | 11:44     #
###################################
Fredagsbar CREDITCARD 2019-04-03 500.0###################################
#	   Aarhus Bryghus	  #
#	     KVITTERING	 	  #
#     Dato 03-04-2019 | 11:49     #
###################################
[Whiskey x 1SOA med Pind x 1]
Betalings metode : CASH
Pris : 850.0
Solgt den : 2019-04-03

###################################
#	   Aarhus Bryghus	  #
#	     KVITTERING	 	  #
#     Dato 03-04-2019 | 11:55     #
###################################
[Blondie x 1Forårsbryg x 1India Pale Ale x 2Blondie Fadøl x 3]
Prisliste : Fredagsbar
Betalings metode : CASH
Pris : 290.0
Solgt den : 2019-04-03

